timestamp,pohlavi,vek,bydliste,znacka,typ,pohon,ridicak,rychlost
25.10.2015 10:55:23,muž,44,Praha,NA,NA,NA,1992,64
25.10.2015 14:01:03,muž,33,Lipůvka,Škoda,Superb,diesel,2000,55
25.10.2015 10:52:38,muž,41,Praha,Kia,Ceed,benzín,1991,53
25.10.2015 10:51:20,muž,24,Brno,NA,NA,NA,2009,52
25.10.2015 12:38:16,muž,24,Blatnice,Škoda,Octavia,benzín,2010,52
25.10.2015 13:22:34,muž,34,Koněšín,Škoda,Fabia,benzín,1999,52
25.10.2015 10:49:17,muž,22,Pelhřimov,BMW,525,diesel,2010,50
25.10.2015 11:34:50,žena,37,Kozojedy,Volkswagen,Golf,benzín,1996,50
25.10.2015 12:44:49,muž,23,Chotěboř,Škoda,Fabia,benzín,2009,50
25.10.2015 13:23:08,muž,57,Kroměříž,Ford,Focus,benzín,1976,50
25.10.2015 10:49:56,žena,23,Praha,Škoda,Fabia,diesel,2011,49
25.10.2015 10:50:26,muž,36,Praha,Škoda,Fabia,diesel,1994,49
25.10.2015 11:28:52,muž,33,Kroměříž,Volvo,NA,diesel,2000,49
25.10.2015 11:32:41,muž,43,Budišov,Honda,Civic,diesel,1986,49
25.10.2015 12:39:56,muž,29,Oslavany,BMW,320,diesel,2006,49
25.10.2015 12:41:32,muž,34,Jihlava,Ford,Focus,diesel,1995,49
25.10.2015 12:42:57,žena,30,Brno,Hyundai,Matrix,benzín,2003,49
25.10.2015 12:45:20,muž,30,Praha,Volkswagen,Transporter,diesel,2005,49
25.10.2015 13:25:27,muž,28,Brandýs nad Labem,Škoda,Octavia,diesel,2006,49
25.10.2015 12:22:49,žena,25,Brumov,Citroen,Xsara,benzín,2008,48
25.10.2015 12:39:09,muž,23,Brno,Mazda,RXS,benzín,2009,48
25.10.2015 12:40:26,muž,27,Oslavany,Škoda,Octavia,benzín,2008,48
25.10.2015 12:41:12,muž,39,Fryšták,Škoda,Octavia,benzín,2002,48
25.10.2015 12:45:45,muž,44,Bratislava,Škoda,Fabia,diesel,1995,48
25.10.2015 13:25:48,muž,30,Praha,Volvo,NA,diesel,2001,48
25.10.2015 12:22:15,žena,32,Hrobice,Škoda,Octavia,benzín,2001,47
25.10.2015 13:18:28,muž,20,Tišnov,Škoda,Felicia,benzín,2013,47
25.10.2015 14:00:39,muž,22,Lipůvka,Alfa Romeo,NA,diesel,2011,47
25.10.2015 12:37:41,žena,25,Praha,Škoda,Fabia,benzín,2008,46
25.10.2015 12:42:13,muž,33,Brno,Škoda,Superb,benzín,2001,46
25.10.2015 14:01:25,muž,40,Lipůvka,Volkswagen,Transporter,diesel,1992,45
25.10.2015 11:30:53,žena,37,Brno,Škoda,Fabia,benzín,1997,44
25.10.2015 12:43:20,muž,42,Brno,Škoda,Fabia,benzín,1995,44
25.10.2015 13:18:52,muž,20,Tišnov,Škoda,Octavia,benzín,2013,44
25.10.2015 13:19:59,muž,35,Brno,Toyota,GT86,benzín,1999,44
25.10.2015 14:00:13,muž,32,Lipůvka,Peugeot,NA,diesel,2001,44
25.10.2015 12:20:13,muž,22,Milonice,Renault,Laguna,benzín,2012,43
25.10.2015 13:59:46,muž,43,Brno,Škoda,Felicia,benzín,1998,43
25.10.2015 13:19:21,muž,43,Tišnov,Renault,NA,benzín,1996,42
25.10.2015 11:28:27,muž,47,Brno,Škoda,Octavia,diesel,1984,41
25.10.2015 11:33:46,muž,47,Brno,Ford,Focus,diesel,2010,41
25.10.2015 11:34:14,muž,20,Brno,Škoda,Felicia,benzín,2013,41
25.10.2015 13:25:04,muž,20,Brandýs nad Labem,Audi,A4,diesel,2013,41
25.10.2015 11:32:09,muž,40,Uherské Hradiště,Volkswagen,Golf,diesel,1995,40
25.10.2015 12:43:39,muž,26,Sedlec,Volkswagen,Golf,diesel,2007,40
25.10.2015 12:40:48,muž,31,Brumov,Volkswagen,Golf,benzín,2002,39
25.10.2015 12:44:30,muž,24,Chotěboř,Audi,A6,diesel,2009,39
25.10.2015 13:17:46,muž,20,Tišnov,Renault,19,benzín,2013,39
25.10.2015 10:53:17,muž,25,Otrokovice,Škoda,Favorit,benzín,2008,38
25.10.2015 10:54:26,muž,54,Most,Toyota,Avensis,diesel,1980,38
25.10.2015 11:29:14,muž,21,Brno,Volvo,NA,diesel,2012,38
25.10.2015 12:37:19,muž,27,Brno,Mazda,3,benzín,2006,38
25.10.2015 10:54:57,muž,34,Praha,Škoda,Octavia,diesel,2000,37
25.10.2015 11:30:24,muž,47,Strančice,Peugeot,807,diesel,1980,36
25.10.2015 12:44:04,muž,44,Bratislava,Škoda,Octavia,benzín,1988,36
25.10.2015 12:21:26,muž,22,Vyškov,BMW,E36,benzín,2012,34
25.10.2015 11:29:39,muž,48,Brno,Volvo,NA,diesel,1995,33
25.10.2015 11:33:15,muž,23,Brno,Opel,Vectra,diesel,2010,29
25.10.2015 10:53:45,muž,41,Říčany u Brna,Peugeot,NA,diesel,1992,27